%YAML 1.1
%TAG !u! tag:unity3d.com,2011:
--- !u!114 &11400000
MonoBehaviour:
  m_ObjectHideFlags: 0
  m_PrefabParentObject: {fileID: 0}
  m_PrefabInternal: {fileID: 0}
  m_GameObject: {fileID: 0}
  m_Enabled: 1
  m_EditorHideFlags: 0
  m_Script: {fileID: 11500000, guid: 09ad9ddc0e5b942a98ec392b434d39bd, type: 3}
  m_Name: FabricSettings
  m_EditorClassIdentifier: 
  email: ostrowski.rafal0@gmail.com
  rawToken: '{"access_token":"ab6f98e382878d9d8f765649debae5f1e15694e2a2e281c60804c410c6ccfd24","refresh_token":"d097d4689cf97122e9dbd101a54bf273b96c2ce38b301f963450b07e9c51f087","token_type":"bearer","expires_in":86400}'
  organization:
    Name: Testing Projects
    Id: 573c78c44d8f5b683000000a
    ApiKey: 663d664b99a0b9b9b9e82cadcb9eb01ec655a2e0
    BuildSecret: 885eac0452051ce9ad516fc70b8f493d70d8ed47c084725ffd16c49d6624fd7e
  iconUrl: 
  dashboardUrl: 
  initialization: 0
  flowSequence: 0
  conflict: 
  kit: 
  installedKits:
  - Name: Crashlytics
    InstallationStatus: 1
    Installed: 0
    Enabled: 1
    Meta:
    - Key: ConfiguredTimestamp
      Value: 1532600051
      Platform: 
    - Key: Dependencies
      Value: '[{"name":"Crashlytics-Android","version":"2.6.8"},{"name":"Crashlytics-Core-Android","version":"2.3.17"},{"name":"Fabric-Android","version":"1.3.17"},{"name":"Answers-Android","version":"1.3.13"},{"name":"Beta-Android","version":"1.2.5"},{"name":"Crashlytics-iOS","version":"3.8.3"},{"name":"Crashlytics-Wrapper-iOS","version":"0.0.0"},{"name":"Crashlytics-Wrapper-Android","version":"0.0.0"}]'
      Platform: 
